module goauthentik.io

go 1.22.2

require (
	beryju.io/ldap v0.1.0
	github.com/coreos/go-oidc v2.2.1+incompatible
	github.com/getsentry/sentry-go v0.27.0
	github.com/go-http-utils/etag v0.0.0-20161124023236-513ea8f21eb1
	github.com/go-ldap/ldap/v3 v3.4.8
	github.com/go-openapi/runtime v0.28.0
	github.com/go-openapi/strfmt v0.23.0
	github.com/golang-jwt/jwt/v5 v5.2.1
	github.com/google/uuid v1.6.0
	github.com/gorilla/handlers v1.5.2
	github.com/gorilla/mux v1.8.1
	github.com/gorilla/securecookie v1.1.2
	github.com/gorilla/sessions v1.2.2
	github.com/gorilla/websocket v1.5.1
	github.com/jellydator/ttlcache/v3 v3.2.0
	github.com/mitchellh/mapstructure v1.5.0
	github.com/nmcclain/asn1-ber v0.0.0-20170104154839-2661553a0484
	github.com/pires/go-proxyproto v0.7.0
	github.com/prometheus/client_golang v1.19.1
	github.com/redis/go-redis/v9 v9.5.1
	github.com/sethvargo/go-envconfig v1.0.2
	github.com/sirupsen/logrus v1.9.3
	github.com/spf13/cobra v1.8.0
	github.com/stretchr/testify v1.9.0
	github.com/wwt/guac v1.3.2
	goauthentik.io/api/v3 v3.2024042.4
	golang.org/x/exp v0.0.0-20230210204819-062eb4c674ab
	golang.org/x/oauth2 v0.20.0
	golang.org/x/sync v0.7.0
	gopkg.in/yaml.v2 v2.4.0
	layeh.com/radius v0.0.0-20210819152912-ad72663a72ab
)

require (
	github.com/Azure/go-ntlmssp v0.0.0-20221128193559-754e69321358 // indirect
	github.com/asaskevich/govalidator v0.0.0-20230301143203-a9d515a09cc2 // indirect
	github.com/beorn7/perks v1.0.1 // indirect
	github.com/cespare/xxhash/v2 v2.2.0 // indirect
	github.com/davecgh/go-spew v1.1.1 // indirect
	github.com/dgryski/go-rendezvous v0.0.0-20200823014737-9f7001d12a5f // indirect
	github.com/felixge/httpsnoop v1.0.3 // indirect
	github.com/go-asn1-ber/asn1-ber v1.5.5 // indirect
	github.com/go-http-utils/fresh v0.0.0-20161124030543-7231e26a4b27 // indirect
	github.com/go-http-utils/headers v0.0.0-20181008091004-fed159eddc2a // indirect
	github.com/go-logr/logr v1.4.1 // indirect
	github.com/go-logr/stdr v1.2.2 // indirect
	github.com/go-openapi/analysis v0.23.0 // indirect
	github.com/go-openapi/errors v0.22.0 // indirect
	github.com/go-openapi/jsonpointer v0.21.0 // indirect
	github.com/go-openapi/jsonreference v0.21.0 // indirect
	github.com/go-openapi/loads v0.22.0 // indirect
	github.com/go-openapi/spec v0.21.0 // indirect
	github.com/go-openapi/swag v0.23.0 // indirect
	github.com/go-openapi/validate v0.24.0 // indirect
	github.com/inconshreveable/mousetrap v1.1.0 // indirect
	github.com/josharian/intern v1.0.0 // indirect
	github.com/mailru/easyjson v0.7.7 // indirect
	github.com/oklog/ulid v1.3.1 // indirect
	github.com/opentracing/opentracing-go v1.2.0 // indirect
	github.com/pmezard/go-difflib v1.0.0 // indirect
	github.com/pquerna/cachecontrol v0.0.0-20201205024021-ac21108117ac // indirect
	github.com/prometheus/client_model v0.5.0 // indirect
	github.com/prometheus/common v0.48.0 // indirect
	github.com/prometheus/procfs v0.12.0 // indirect
	github.com/spf13/pflag v1.0.5 // indirect
	go.mongodb.org/mongo-driver v1.14.0 // indirect
	go.opentelemetry.io/otel v1.24.0 // indirect
	go.opentelemetry.io/otel/metric v1.24.0 // indirect
	go.opentelemetry.io/otel/trace v1.24.0 // indirect
	golang.org/x/crypto v0.21.0 // indirect
	golang.org/x/net v0.23.0 // indirect
	golang.org/x/sys v0.18.0 // indirect
	golang.org/x/text v0.14.0 // indirect
	google.golang.org/protobuf v1.33.0 // indirect
	gopkg.in/square/go-jose.v2 v2.5.1 // indirect
	gopkg.in/yaml.v3 v3.0.1 // indirect
)
